<svg xmlns="http://www.w3.org/2000/svg" width="27.024" height="27.024" viewBox="0 0 27.024 27.024">
  <path id="user-circle" d="M24.342,21.608l-4.671-2.123a6.757,6.757,0,1,0-8.317,0L6.683,21.608a3.375,3.375,0,0,0-1.149.857,12.16,12.16,0,1,1,19.956,0,3.375,3.375,0,0,0-1.149-.857M10.107,14.16a5.4,5.4,0,1,1,5.4,5.4,5.405,5.405,0,0,1-5.4-5.4m5.4,13.512a12.133,12.133,0,0,1-9.118-4.113,2.011,2.011,0,0,1,.849-.72l5.516-2.508a6.776,6.776,0,0,0,5.509,0l5.516,2.508a2.015,2.015,0,0,1,.847.72,12.131,12.131,0,0,1-9.118,4.113M15.512,2A13.512,13.512,0,1,0,29.024,15.512,13.512,13.512,0,0,0,15.512,2" transform="translate(-2 -2)" fill="#262e3a"/>
</svg>
