<svg xmlns="http://www.w3.org/2000/svg" width="17.392" height="18.123" viewBox="0 0 17.392 18.123">
  <path id="fi-rr-arrow-small-left" d="M5.879,11.707a1,1,0,0,0,0-1.415L2.587,7,13,6.992a1,1,0,1,0,0-2L2.585,5,5.879,1.708A1,1,0,1,0,4.465.293L.879,3.879a3,3,0,0,0,0,4.243l3.586,3.586a1,1,0,0,0,1.414,0Z" transform="translate(0 12.123) rotate(-60)" fill="#4ab206"/>
</svg>
