<svg xmlns="http://www.w3.org/2000/svg" width="29.726" height="27.024" viewBox="0 0 29.726 27.024">
  <g id="Group_12277" data-name="Group 12277" transform="translate(-1435 -3375.717)">
    <path id="camera-alt" d="M1,25.646V9.432A3.378,3.378,0,0,1,4.378,6.054H6.985a2.027,2.027,0,0,0,1.686-.9L9.77,3.5A3.378,3.378,0,0,1,12.58,2h6.566a3.378,3.378,0,0,1,2.811,1.5l1.1,1.647a2.027,2.027,0,0,0,1.686.9h2.607a3.378,3.378,0,0,1,3.378,3.378V25.646a3.378,3.378,0,0,1-3.378,3.378H4.378A3.378,3.378,0,0,1,1,25.646Zm1.351,0a2.027,2.027,0,0,0,2.027,2.027h22.97a2.027,2.027,0,0,0,2.027-2.027V9.432A2.027,2.027,0,0,0,27.348,7.4H24.741A3.378,3.378,0,0,1,21.93,5.9l-1.1-1.647a2.027,2.027,0,0,0-1.686-.9H12.58a2.027,2.027,0,0,0-1.686.9L9.8,5.9A3.378,3.378,0,0,1,6.985,7.4H4.378A2.027,2.027,0,0,0,2.351,9.432Zm13.512-.676a8.107,8.107,0,1,1,8.107-8.107A8.107,8.107,0,0,1,15.863,24.97Zm0-1.351a6.756,6.756,0,1,0-6.756-6.756A6.756,6.756,0,0,0,15.863,23.619ZM25.322,8.756h1.351a1.351,1.351,0,0,1,1.351,1.351v1.351a1.351,1.351,0,0,1-1.351,1.351H25.322a1.351,1.351,0,0,1-1.351-1.351V10.107A1.351,1.351,0,0,1,25.322,8.756Zm0,1.351v1.351h1.351V10.107ZM3.027,4.7a.676.676,0,0,1,0-1.351h2.7a.676.676,0,0,1,0,1.351Z" transform="translate(1434 3373.717)" fill="#262e3a"/>
  </g>
</svg>
