<svg xmlns="http://www.w3.org/2000/svg" width="12.237" height="11.412" viewBox="0 0 12.237 11.412">
  <path id="Path_5636" data-name="Path 5636" d="M8.917.917A3.262,3.262,0,0,0,6.113,2.6,3.262,3.262,0,0,0,3.31.917,3.466,3.466,0,0,0,0,4.51c0,3.453,5.584,7.441,5.821,7.61l.295.208.295-.208c.237-.168,5.821-4.157,5.821-7.61A3.466,3.466,0,0,0,8.917.917Z" transform="translate(0.005 -0.917)" fill="red"/>
</svg>
