<svg xmlns="http://www.w3.org/2000/svg" width="14.144" height="17.011" viewBox="0 0 14.144 17.011">
  <path id="Location" d="M7.072,17.011A.906.906,0,0,1,6.5,16.8C6.231,16.586,0,11.4,0,6.738A6.919,6.919,0,0,1,7.072,0a6.919,6.919,0,0,1,7.072,6.738,7.792,7.792,0,0,1-.978,3.506,17.73,17.73,0,0,1-2.171,3.191A28.05,28.05,0,0,1,7.647,16.8.9.9,0,0,1,7.072,17.011Zm0-15.31a5.182,5.182,0,0,0-5.3,5.037,8.515,8.515,0,0,0,2.1,4.807,26.937,26.937,0,0,0,3.207,3.463,26.932,26.932,0,0,0,3.207-3.463,8.515,8.515,0,0,0,2.1-4.807A5.181,5.181,0,0,0,7.072,1.7Zm0,7.654A3.04,3.04,0,0,1,3.978,6.379,3.041,3.041,0,0,1,7.072,3.4a3.041,3.041,0,0,1,3.094,2.977A3.04,3.04,0,0,1,7.072,9.355Zm0-4.253A1.277,1.277,0,1,0,8.4,6.379,1.3,1.3,0,0,0,7.072,5.1Z" fill="#0ad188"/>
</svg>
