<svg xmlns="http://www.w3.org/2000/svg" width="65" height="26" viewBox="0 0 65 26">
  <g id="Group_13043" data-name="Group 13043" transform="translate(-140.128 -309.051)">
    <g id="Rectangle_544" data-name="Rectangle 544" transform="translate(140.128 309.051)" fill="#fff" stroke="#08cc84" stroke-width="1">
      <rect width="65" height="26" rx="5" stroke="none"/>
      <rect x="0.5" y="0.5" width="64" height="25" rx="4.5" fill="none"/>
    </g>
    <text id="Online" transform="translate(166.128 326.051)" fill="#08cc84" font-size="10" font-family="Poppins-Medium, Poppins" font-weight="500"><tspan x="0" y="0">Online</tspan></text>
    <circle id="Ellipse_334" data-name="Ellipse 334" cx="7" cy="7" r="7" transform="translate(146.128 315.051)" fill="#08cc84"/>
  </g>
</svg>
